xtea_trace.vcd
$date
     Nov 17, 2018       12:42:57
$end

$version
 SystemC 2.3.3-Accellera --- Nov 11 2018 16:26:03
$end

$timescale
     1 ps
$end

$scope module SystemC $end
$var wire    1  aaaaa  clock       $end
$var wire    1  aaaab  reset       $end
$var wire    2  aaaac  command [1:0]  $end
$var wire   32  aaaad  op1 [31:0]  $end
$var wire   32  aaaae  op2 [31:0]  $end
$var wire    1  aaaaf  inputReady       $end
$var wire   32  aaaag  result1 [31:0]  $end
$var wire   32  aaaah  result2 [31:0]  $end
$var wire    1  aaaai  outputReady       $end
$upscope $end
$enddefinitions  $end

$comment
All initial values are dumped below at time 0 sec = 0 timescale units.
$end

$dumpvars
1aaaaa
0aaaab
b0 aaaac
b1101010000111010111100011001000 aaaad
b10001100100001101101011001111111 aaaae
1aaaaf
b0 aaaag
b0 aaaah
0aaaai
$end

#1
0aaaaa

#2
1aaaaa
0aaaaf

#3
0aaaaa

#4
1aaaaa
1aaaai

#5
0aaaaa

#6
1aaaaa
b1 aaaac
b101010011001011011111110111110 aaaad
b10110100101111010110111001000110 aaaae
1aaaaf
0aaaai

#7
0aaaaa

#8
1aaaaa
0aaaaf

#9
0aaaaa

#10
1aaaaa
1aaaai

#11
0aaaaa

#12
1aaaaa
b10 aaaac
b11000001101000001100000110100000 aaaad
b11011110101011011011111011111111 aaaae
1aaaaf
0aaaai

#13
0aaaaa

#14
1aaaaa
0aaaaf

#15
0aaaaa

#16
1aaaaa

#17
0aaaaa

#18
1aaaaa

#19
0aaaaa

#20
1aaaaa

#21
0aaaaa

#22
1aaaaa

#23
0aaaaa

#24
1aaaaa

#25
0aaaaa

#26
1aaaaa

#27
0aaaaa

#28
1aaaaa

#29
0aaaaa

#30
1aaaaa

#31
0aaaaa

#32
1aaaaa

#33
0aaaaa

#34
1aaaaa

#35
0aaaaa

#36
1aaaaa

#37
0aaaaa

#38
1aaaaa

#39
0aaaaa

#40
1aaaaa

#41
0aaaaa

#42
1aaaaa

#43
0aaaaa

#44
1aaaaa

#45
0aaaaa

#46
1aaaaa

#47
0aaaaa

#48
1aaaaa

#49
0aaaaa

#50
1aaaaa

#51
0aaaaa

#52
1aaaaa

#53
0aaaaa

#54
1aaaaa

#55
0aaaaa

#56
1aaaaa

#57
0aaaaa

#58
1aaaaa

#59
0aaaaa

#60
1aaaaa

#61
0aaaaa

#62
1aaaaa

#63
0aaaaa

#64
1aaaaa

#65
0aaaaa

#66
1aaaaa

#67
0aaaaa

#68
1aaaaa

#69
0aaaaa

#70
1aaaaa

#71
0aaaaa

#72
1aaaaa

#73
0aaaaa

#74
1aaaaa

#75
0aaaaa

#76
1aaaaa

#77
0aaaaa

#78
1aaaaa

#79
0aaaaa

#80
1aaaaa

#81
0aaaaa

#82
1aaaaa

#83
0aaaaa

#84
1aaaaa

#85
0aaaaa

#86
1aaaaa

#87
0aaaaa

#88
1aaaaa

#89
0aaaaa

#90
1aaaaa

#91
0aaaaa

#92
1aaaaa

#93
0aaaaa

#94
1aaaaa

#95
0aaaaa

#96
1aaaaa

#97
0aaaaa

#98
1aaaaa

#99
0aaaaa

#100
1aaaaa

#101
0aaaaa

#102
1aaaaa

#103
0aaaaa

#104
1aaaaa

#105
0aaaaa

#106
1aaaaa

#107
0aaaaa

#108
1aaaaa

#109
0aaaaa

#110
1aaaaa

#111
0aaaaa

#112
1aaaaa

#113
0aaaaa

#114
1aaaaa

#115
0aaaaa

#116
1aaaaa

#117
0aaaaa

#118
1aaaaa

#119
0aaaaa

#120
1aaaaa

#121
0aaaaa

#122
1aaaaa

#123
0aaaaa

#124
1aaaaa

#125
0aaaaa

#126
1aaaaa

#127
0aaaaa

#128
1aaaaa

#129
0aaaaa

#130
1aaaaa

#131
0aaaaa

#132
1aaaaa

#133
0aaaaa

#134
1aaaaa

#135
0aaaaa

#136
1aaaaa

#137
0aaaaa

#138
1aaaaa

#139
0aaaaa

#140
1aaaaa

#141
0aaaaa

#142
1aaaaa

#143
0aaaaa

#144
1aaaaa

#145
0aaaaa

#146
1aaaaa

#147
0aaaaa

#148
1aaaaa

#149
0aaaaa

#150
1aaaaa

#151
0aaaaa

#152
1aaaaa

#153
0aaaaa

#154
1aaaaa

#155
0aaaaa

#156
1aaaaa

#157
0aaaaa

#158
1aaaaa

#159
0aaaaa

#160
1aaaaa

#161
0aaaaa

#162
1aaaaa

#163
0aaaaa

#164
1aaaaa

#165
0aaaaa

#166
1aaaaa

#167
0aaaaa

#168
1aaaaa

#169
0aaaaa

#170
1aaaaa

#171
0aaaaa

#172
1aaaaa

#173
0aaaaa

#174
1aaaaa

#175
0aaaaa

#176
1aaaaa

#177
0aaaaa

#178
1aaaaa

#179
0aaaaa

#180
1aaaaa

#181
0aaaaa

#182
1aaaaa

#183
0aaaaa

#184
1aaaaa

#185
0aaaaa

#186
1aaaaa

#187
0aaaaa

#188
1aaaaa

#189
0aaaaa

#190
1aaaaa

#191
0aaaaa

#192
1aaaaa

#193
0aaaaa

#194
1aaaaa

#195
0aaaaa

#196
1aaaaa

#197
0aaaaa

#198
1aaaaa

#199
0aaaaa

#200
1aaaaa

#201
0aaaaa

#202
1aaaaa

#203
0aaaaa

#204
1aaaaa

#205
0aaaaa

#206
1aaaaa

#207
0aaaaa

#208
1aaaaa

#209
0aaaaa

#210
1aaaaa

#211
0aaaaa

#212
1aaaaa

#213
0aaaaa

#214
1aaaaa

#215
0aaaaa

#216
1aaaaa

#217
0aaaaa

#218
1aaaaa

#219
0aaaaa

#220
1aaaaa

#221
0aaaaa

#222
1aaaaa

#223
0aaaaa

#224
1aaaaa

#225
0aaaaa

#226
1aaaaa

#227
0aaaaa

#228
1aaaaa

#229
0aaaaa

#230
1aaaaa

#231
0aaaaa

#232
1aaaaa

#233
0aaaaa

#234
1aaaaa

#235
0aaaaa

#236
1aaaaa

#237
0aaaaa

#238
1aaaaa

#239
0aaaaa

#240
1aaaaa

#241
0aaaaa

#242
1aaaaa

#243
0aaaaa

#244
1aaaaa

#245
0aaaaa

#246
1aaaaa

#247
0aaaaa

#248
1aaaaa

#249
0aaaaa

#250
1aaaaa

#251
0aaaaa

#252
1aaaaa

#253
0aaaaa

#254
1aaaaa

#255
0aaaaa

#256
1aaaaa

#257
0aaaaa

#258
1aaaaa

#259
0aaaaa

#260
1aaaaa

#261
0aaaaa

#262
1aaaaa

#263
0aaaaa

#264
1aaaaa

#265
0aaaaa

#266
1aaaaa

#267
0aaaaa

#268
1aaaaa

#269
0aaaaa

#270
1aaaaa

#271
0aaaaa

#272
1aaaaa

#273
0aaaaa

#274
1aaaaa

#275
0aaaaa

#276
1aaaaa

#277
0aaaaa

#278
1aaaaa

#279
0aaaaa

#280
1aaaaa

#281
0aaaaa

#282
1aaaaa

#283
0aaaaa

#284
1aaaaa

#285
0aaaaa

#286
1aaaaa

#287
0aaaaa

#288
1aaaaa

#289
0aaaaa

#290
1aaaaa

#291
0aaaaa

#292
1aaaaa

#293
0aaaaa

#294
1aaaaa

#295
0aaaaa

#296
1aaaaa

#297
0aaaaa

#298
1aaaaa

#299
0aaaaa

#300
1aaaaa

#301
0aaaaa

#302
1aaaaa

#303
0aaaaa

#304
1aaaaa

#305
0aaaaa

#306
1aaaaa

#307
0aaaaa

#308
1aaaaa

#309
0aaaaa

#310
1aaaaa

#311
0aaaaa

#312
1aaaaa

#313
0aaaaa

#314
1aaaaa

#315
0aaaaa

#316
1aaaaa

#317
0aaaaa

#318
1aaaaa

#319
0aaaaa

#320
1aaaaa

#321
0aaaaa

#322
1aaaaa

#323
0aaaaa

#324
1aaaaa

#325
0aaaaa

#326
1aaaaa

#327
0aaaaa

#328
1aaaaa

#329
0aaaaa

#330
1aaaaa

#331
0aaaaa

#332
1aaaaa

#333
0aaaaa

#334
1aaaaa

#335
0aaaaa

#336
1aaaaa

#337
0aaaaa

#338
1aaaaa

#339
0aaaaa

#340
1aaaaa

#341
0aaaaa

#342
1aaaaa

#343
0aaaaa

#344
1aaaaa

#345
0aaaaa

#346
1aaaaa

#347
0aaaaa

#348
1aaaaa

#349
0aaaaa

#350
1aaaaa

#351
0aaaaa

#352
1aaaaa

#353
0aaaaa

#354
1aaaaa

#355
0aaaaa

#356
1aaaaa

#357
0aaaaa

#358
1aaaaa

#359
0aaaaa

#360
1aaaaa

#361
0aaaaa

#362
1aaaaa

#363
0aaaaa

#364
1aaaaa

#365
0aaaaa

#366
1aaaaa

#367
0aaaaa

#368
1aaaaa

#369
0aaaaa

#370
1aaaaa

#371
0aaaaa

#372
1aaaaa

#373
0aaaaa

#374
1aaaaa

#375
0aaaaa

#376
1aaaaa

#377
0aaaaa

#378
1aaaaa

#379
0aaaaa

#380
1aaaaa

#381
0aaaaa

#382
1aaaaa

#383
0aaaaa

#384
1aaaaa

#385
0aaaaa

#386
1aaaaa

#387
0aaaaa

#388
1aaaaa

#389
0aaaaa

#390
1aaaaa

#391
0aaaaa

#392
1aaaaa

#393
0aaaaa

#394
1aaaaa

#395
0aaaaa

#396
1aaaaa

#397
0aaaaa

#398
1aaaaa

#399
0aaaaa

#400
1aaaaa

#401
0aaaaa

#402
1aaaaa
b1110010101010100101010101101001 aaaag
b10100000101101001000111011110001 aaaah
1aaaai

#403
0aaaaa

#404
1aaaaa
b11 aaaac
b1110010101010100101010101101001 aaaad
b10100000101101001000111011110001 aaaae
1aaaaf
0aaaai

#405
0aaaaa

#406
1aaaaa
0aaaaf

